<?xml version="1.0" encoding="utf-8"?>
<!-- Generator: Adobe Illustrator 22.1.0, SVG Export Plug-In . SVG Version: 6.00 Build 0)  -->
<svg version="1.1" id="Layer_1" xmlns="http://www.w3.org/2000/svg" xmlns:xlink="http://www.w3.org/1999/xlink" x="0px" y="0px"
	 viewBox="0 0 426.5 401.9" style="enable-background:new 0 0 426.5 401.9;" xml:space="preserve">
<style type="text/css">
	.st0{fill:#424242;}
	.st1{fill:#FF0000;}
</style>
<title>weGT Live</title>
<path class="st0" d="M165.7,135.7v-24c0.7,0,2-0.2,3.2-0.2c45.6,0,91.2,0,136.8,0c19.7,0,35.3,12.1,40.4,31.2
	c0.8,3.5,1.2,7,1.2,10.6c0.2,10.3,0.1,20.6,0.1,30.9v5.1l74-38.9v158c-3.3-1.7-6.2-3.2-9.2-4.8c-27.2-14.3-54.4-28.7-81.6-43
	c-4.2-2.2-6.9-5.5-7.2-10.3c-0.7-9.9,9.1-16,18.1-11.4c12.5,6.4,25,13.1,37.4,19.7c5.1,2.7,10.2,5.3,15.4,8c0.8,0.4,1.6,0.7,2.9,1.2
	v-77.1c-1.9,0.9-3.4,1.5-4.9,2.2c-16.6,8.7-33.3,17.2-49.7,26.2c-10.5,5.8-19.8-2-19.5-11.8c0.6-17.8,0.2-35.6,0.2-53.5
	c0-11.2-7.3-18.4-18.5-18.4L165.7,135.7L165.7,135.7z"/>
<path class="st0" d="M243.6,275.3v-94.9h55.5v17.1h-35.2v19.5h35.2v17.4h-35.1V258H299v17.3L243.6,275.3z"/>
<path class="st0" d="M144.2,180.2c6.8,0,13.5-0.1,20.2,0.1c1.1,0.3,2,1.1,2.4,2.1c7.1,24,14.2,48,21.1,72.1c0.2,0.4,0.4,0.7,0.7,1.1
	c0.3-1.6,0.5-2.8,0.8-4c4.3-14.8,8.6-29.7,13-44.5c2.4-8.1,5.1-16.1,7.6-24.1c0.6-1.9,1.3-2.8,3.5-2.8c6.3,0.2,12.7,0.1,19.5,0.1
	c-1.3,3.6-2.5,6.8-3.7,10c-10.1,27.3-20.1,54.6-30.2,81.9c-0.9,2.5-2,3.7-4.9,3.5c-4.4-0.3-8.8,0.1-13.2-0.2
	c-1.3-0.2-2.5-0.9-3.2-2.1c-11.4-30.7-22.7-61.3-33.9-92C144.2,181,144.2,180.6,144.2,180.2z"/>
<path class="st0" d="M80.5,111.8v23.7c-0.6,0-1.8,0.2-2.9,0.2c-9.7,0-19.4,0-29.2,0c-11.7,0-18.9,7-18.9,18.7c-0.1,18,0,36.1,0,54.2
	c0,6.1-2.8,10.4-7.9,12.2c-6.2,2.3-13.1-0.9-15.4-7.1c-0.5-1.3-0.7-2.6-0.7-4c-0.2-19.6-0.4-39.1,0-58.7C6,129.2,24,112,45.7,111.6
	c10.9-0.2,21.8,0,32.6,0C79,111.6,79.8,111.6,80.5,111.8z"/>
<path class="st1" d="M122.7,153.8c-16.7-0.2-30-13.9-29.8-30.6c0,0,0-0.1,0-0.1c0.4-17,14-29.9,31.1-29.6
	c14.9,0.2,29.6,12.9,28.9,32.1C152.5,141,138.6,154.1,122.7,153.8z"/>
<path class="st0" d="M47.1,275.4v-94.9h20.2V258h32.1v17.4L47.1,275.4z"/>
<path class="st0" d="M132.9,275.4h-19.8v-94.9h19.8L132.9,275.4z"/>
</svg>
