<?xml version="1.0" encoding="utf-8"?>
<!-- Generator: Adobe Illustrator 22.0.1, SVG Export Plug-In . SVG Version: 6.00 Build 0)  -->
<svg version="1.1" xmlns="http://www.w3.org/2000/svg" xmlns:xlink="http://www.w3.org/1999/xlink" x="0px" y="0px"
	 viewBox="0 0 67.3 61.3" style="enable-background:new 0 0 67.3 61.3;" xml:space="preserve">
<style type="text/css">
	.st0{display:none;}
	.st1{display:inline;}
	.st2{fill:#FFFFFF;}
	.st3{fill:none;stroke:#58595B;stroke-miterlimit:10;}
	.st4{fill:none;stroke:#58595B;stroke-width:0.6036;stroke-miterlimit:10;}
</style>
<g id="Layer_2">
</g>
<g id="Layer_1">
</g>
<g id="Layer_8">
</g>
<g id="Layer_7">
</g>
<g id="Layer_3_copy" class="st0">
</g>
<g id="Layer_6">
</g>
<g id="Layer_4">
	<g>
		<path class="st2" d="M36.7,46.2c-0.1-2.1,0.1-3.9,1.9-5.2c-0.7-1.2-1-2.4-0.5-3.6c0.3-0.8,0.8-1.6,1.5-2.1c1.6-1.1,3.5-1,5,0.3
			c1.5,1.3,1.8,3.1,0.7,5.5c1.8,1.2,2.1,3.1,1.9,5.1c0.3,0,0.5,0,0.8,0.1c-0.1-2,0.1-3.9,1.9-5.1c-1-2.7-0.7-4.5,0.9-5.7
			c1.5-1.1,3.6-1.1,5,0.1c1.5,1.3,1.8,3.1,0.8,5.5c1.8,1.2,2.1,3.1,1.9,5.1c2.2,0,4.4,0,6.6,0c0-0.3,0-0.5,0-0.7
			c0-8.9,0-17.8,0-26.7c0-0.7-0.2-0.8-0.9-0.8c-2.1,0-4.1,0-6.2,0c-0.2,0-0.5,0-0.8,0c0,0.3,0,0.6,0,0.9c0,4.1,0,8.1,0,12.2
			c0,0.2,0,0.3,0,0.5c0,0.7-0.5,1.2-1,1.1c-0.6,0-1-0.5-1-1.2c0-3.3,0-6.7,0-10c0-1.1,0-2.3,0-3.5c-13.9,0-27.6,0-41.5,0
			c0,9.4,0,18.8,0,28.3c0.3,0,0.5,0,0.8,0c3.2,0,6.4,0,9.6,0c0.3,0,0.5,0,0.7,0.1c0.5,0.1,0.8,0.5,0.7,1c-0.1,0.4-0.5,0.6-0.8,0.9
			c-0.1,0.1-0.4,0-0.6,0c-3.4,0-6.9,0-10.3,0c-0.6,0-0.9,0.1-1.3,0.6c-3.5,3.9-7.1,7.8-10.6,11.8C2,60.8,1.8,61,1.7,61
			c-0.3,0.1-0.7,0.3-1,0.1c-0.3-0.1-0.4-0.5-0.6-0.8c-0.1-0.2,0-0.4,0-0.6C0,45.8,0,31.9,0,18c0-3.8,0-7.5,0-11.3
			c0-0.5,0.2-0.9,0.7-1.1C4.5,3.8,8.3,2,12.1,0.2C12.5,0.1,12.8,0,13.2,0C27.5,0,41.8,0,56,0c0.4,0,0.8,0.1,1.1,0.3
			c3,1.7,6.1,3.4,9.1,5.1c0.7,0.4,1,0.9,1,1.7c-0.1,3.1,0,6.2,0,9.4c0,0.7,0,1.3,0,2c0,9,0,18.1,0,27.1c0,4.7,0,9.5,0.1,14.2
			c0,1.1-0.3,1.4-1.5,1.4c-12,0-24,0-36,0c-1.4,0-1.6-0.2-1.6-1.6c0-4,0-8,0-12.1c0-1.1,0.3-1.5,1.4-1.5
			C31.9,46.2,34.3,46.2,36.7,46.2z M33.6,7.5c-10.3,0-20.5,0-30.8,0C2.2,7.5,2,7.7,2,8.3c0,2.3,0,4.5,0,6.8c0,0.6,0.2,0.8,0.8,0.8
			c3.6,0,7.3,0,10.9,0c8.2,0,16.3,0,24.5,0c6,0,12.1,0,18.1,0c2.7,0,5.4,0,8.1,0.1c0.6,0,0.8-0.2,0.8-0.8c0-2.2,0-4.5,0-6.7
			c0-0.9,0-0.9-0.9-0.9C54.1,7.5,43.8,7.5,33.6,7.5z M30.1,48.2c0,0.4,0,0.7,0,1c0,3.1,0,6.2,0,9.2c0,0.9,0,0.9,0.9,0.9
			c11.1,0,22.3,0,33.4,0c0.6,0,0.8-0.1,0.8-0.8c0-3.2,0-6.4,0-9.6c0-0.2,0-0.4-0.1-0.7C53.5,48.2,41.8,48.2,30.1,48.2z M11.8,18
			c-0.2,0-0.3-0.1-0.4-0.1c-2.9,0-5.8,0-8.7,0C2,17.9,2,18.2,2,18.6C2,31.4,2,44.2,2,57c0,0.2,0,0.3,0.1,0.6
			c0.2-0.1,0.2-0.2,0.3-0.3c3-3.3,6.1-6.7,9.1-10.1c0.2-0.2,0.3-0.6,0.3-0.9c0-9.2,0-18.4,0-27.7C11.8,18.4,11.8,18.2,11.8,18z
			 M5.9,5.3c0,0.1,0,0.1,0,0.2c18.7,0,37.4,0,56.2,0c-0.2-0.2-0.3-0.2-0.4-0.3c-1.8-1-3.6-2-5.4-3C56.1,2,55.8,2,55.5,2
			c-14,0-28,0-42,0c-0.2,0-0.5,0-0.7,0.1C10.5,3.2,8.2,4.3,5.9,5.3z M45.3,46.1c0-0.7,0-1.3,0-1.9c-0.1-1.2-1.1-1.9-2.3-1.7
			c-0.6,0.1-1.3,0.1-1.9,0c-0.8-0.1-1.3,0-1.8,0.7c-0.7,0.9-0.4,1.9-0.4,2.9C40.9,46.1,43.1,46.1,45.3,46.1z M56.6,46.1
			c0-0.7,0.1-1.4,0-2c-0.1-1.2-1.2-1.8-2.3-1.6c-0.7,0.1-1.4,0.1-2-0.1c-0.5-0.1-0.8,0-1.2,0.2c-0.9,0.6-1.2,2.1-0.8,3.4
			C52.3,46.1,54.4,46.1,56.6,46.1z M42,40.6c1.2,0,2.1-0.8,2.1-2c0-1.2-0.9-2.1-2.1-2.1c-1.1,0-2,0.9-2,2
			C39.9,39.7,40.8,40.6,42,40.6z M53.3,40.6c1.2,0,2.1-0.8,2.1-2.1c0-1.2-0.9-2.1-2.1-2.1c-1.1,0-2,0.9-2,2.1
			C51.3,39.8,52.1,40.6,53.3,40.6z"/>
	</g>
</g>
</svg>
