<?xml version="1.0" encoding="utf-8"?>
<!-- Generator: Adobe Illustrator 22.0.1, SVG Export Plug-In . SVG Version: 6.00 Build 0)  -->
<svg version="1.1" xmlns="http://www.w3.org/2000/svg" xmlns:xlink="http://www.w3.org/1999/xlink" x="0px" y="0px"
	 viewBox="0 0 33.8 35.7" style="enable-background:new 0 0 33.8 35.7;" xml:space="preserve">
<style type="text/css">
	.st0{fill:url(#SVGID_1_);}
	.st1{fill:#FFFFFF;}
	.st2{fill:url(#SVGID_2_);}
	.st3{fill:url(#SVGID_3_);}
</style>
<g id="BACKGROUND">
</g>
<g id="ELEMENTS">
	<g>
		<linearGradient id="SVGID_1_" gradientUnits="userSpaceOnUse" x1="27.2556" y1="7.5153" x2="6.5778" y2="28.1931">
			<stop  offset="0" style="stop-color:#007AB5"/>
			<stop  offset="1" style="stop-color:#0046E5"/>
		</linearGradient>
		<circle class="st0" cx="16.9" cy="17.9" r="14.6"/>
		<path class="st1" d="M10.8,15.1h2.8v9.1h-2.8V15.1z M12.2,10.6c0.9,0,1.6,0.7,1.6,1.6c0,0.9-0.7,1.6-1.6,1.6
			c-0.9,0-1.6-0.7-1.6-1.6C10.6,11.3,11.3,10.6,12.2,10.6"/>
		<path class="st1" d="M15.4,15.1h2.7v1.2h0c0.4-0.7,1.3-1.5,2.7-1.5c2.9,0,3.4,1.9,3.4,4.3v5h-2.8v-4.4c0-1.1,0-2.4-1.5-2.4
			c-1.5,0-1.7,1.1-1.7,2.3v4.5h-2.8V15.1z"/>
	</g>
</g>
</svg>
