<?xml version="1.0" encoding="utf-8"?>
<!-- Generator: Adobe Illustrator 21.0.0, SVG Export Plug-In . SVG Version: 6.00 Build 0)  -->
<svg version="1.1" id="Layer_1" xmlns="http://www.w3.org/2000/svg" xmlns:xlink="http://www.w3.org/1999/xlink" x="0px" y="0px"
	 viewBox="0 0 525.9 495.8" style="enable-background:new 0 0 525.9 495.8;" xml:space="preserve">
<style type="text/css">
	.st0{display:none;}
	.st1{display:inline;}
</style>
<title>360 black</title>
<g>
	<path d="M84.4,193.7v-67.4h12C79.1,94.5,55.7,69.6,25.8,49.2c48.5-21.7,99.9-36.3,152.6-43.3c110.7-14.6,218-2.4,322,43.2
		c-29.6,20.5-53.5,44.8-69.9,75.7c0.5,0.6,0.7,1.1,0.9,1.1c10.4,1.1,10.5,1.1,10.5,11.8c0.1,17.2,0,34.3,0.1,51.5
		c0,3.4-0.8,4.9-4.6,4.9c-116.7-0.1-233.4-0.1-350.2-0.1C86.4,193.9,85.6,193.8,84.4,193.7z M161,75.9L89,93.9
		c6.4,11.1,12.1,20.9,17.8,30.5c0.6,0.9,1.5,1.6,2.6,1.8c17.1,0.1,34.2,0.1,51.6,0.1V75.9z M437,93.7l-72.4-17.8
		c0,17-0.1,32.4,0.2,47.7c0,0.9,2.6,2.4,4,2.4c15.4,0.2,30.8,0.2,46.2,0c1.7-0.1,3.4-0.9,4.5-2.3C425.2,114.2,430.7,104.6,437,93.7
		L437,93.7z M257.7,67.3c-11.8,0.5-23,0.9-34.2,1.7c-1.4,0.1-3.8,3-3.8,4.6c-0.3,16.1-0.2,32.2-0.1,48.3c0,1.4,1.5,4,2.3,4
		c11.9,0.3,23.8,0.2,35.7,0.2L257.7,67.3z M306.3,126c0-18.2,0-36-0.1-53.8c-0.3-1.4-1.3-2.5-2.6-3c-11.6-0.9-23.3-1.5-35.1-2.2v59
		L306.3,126z M316.4,70c0,18.5-0.1,35.8,0.2,53c0,1,2.5,2.9,3.9,2.9c9.9,0.3,19.7,0,29.6,0.2c3.9,0.1,4.6-1.4,4.5-4.8
		c-0.2-12.6-0.5-25.3,0.1-37.9c0.4-7.1-1.8-9.7-8.8-10.2C336.2,72.7,326.6,71.2,316.4,70L316.4,70z M209.5,98.3c0-8,0.2-16-0.2-23.9
		c-0.1-1.3-2.8-3.8-4.1-3.7c-10.1,0.9-20.2,2.2-30.3,3.7c-1.3,0.2-3.2,2.5-3.2,3.9c-0.2,14.7-0.2,29.5,0,44.2c0,1.3,2.4,3.6,3.8,3.6
		c9.9,0.3,19.8,0.3,29.6-0.1c1.5-0.1,4.2-2.7,4.2-4.3C209.8,113.9,209.5,106.1,209.5,98.3z M116.7,146.2c2.1,12.1,4.1,24,6.3,35.8
		c0.4,1,1.3,1.8,2.4,2c11.7,0.1,23.5,0.1,35.4,0.1v-37.9L116.7,146.2z M409.3,146.4h-44.4c0,11.7-0.1,23.1,0.1,34.5
		c0,1,1.8,2.9,2.8,3c10.6,0.2,21.1,0.2,31.7,0c1.5-0.3,2.7-1.3,3.3-2.8C405.2,169.7,407.2,158.1,409.3,146.4L409.3,146.4z
		 M316.4,146.1c0,11.9-0.1,23.3,0.1,34.7c0,1.2,2.1,3.3,3.2,3.3c10.5,0.2,21.1,0.1,31.6-0.2c1.1,0,3-1.6,3-2.4
		c0.2-11.7,0.1-23.4,0.1-35.3H316.4z M257.7,146.1c-12,0-23.4-0.1-34.9,0.2c-1.1,0-3.1,2.4-3.1,3.8c-0.3,10-0.3,20.1,0,30.1
		c0,1.3,1.7,3.7,2.7,3.7c11.7,0.3,23.4,0.2,35.3,0.2L257.7,146.1z M171.7,184c11.9,0,23.5,0.1,35.1-0.1c0.9,0,2.6-2.1,2.6-3.3
		c0.2-10.4,0.2-20.8,0-31.2c0-1.1-1.3-3.2-2.1-3.2c-11.9-0.2-23.7-0.1-35.7-0.1L171.7,184z M268.2,183.6h37.5v-37.6
		c-11.8,0-23.4-0.1-34.9,0.1c-0.9,0-2.5,1.8-2.5,2.8C268.1,160.4,268.2,171.8,268.2,183.6L268.2,183.6z"/>
	<path d="M456.6,334c3.6-0.3,4.9-0.7,6-0.4c19.4,5.1,37.4,12.8,51.3,27.8c13.7,14.7,15.7,35,4.9,52.3
		c-10.4,16.7-25.7,27.9-42.6,37.1c-35.6,19.3-74.1,29.5-113.8,36.3c-79,13.8-160,11-237.8-8.1c-29.7-7.3-58.6-17.4-84.1-34.7
		c-11.7-8-22.1-17.7-31.1-28.6c-13.8-16.7-12.2-36.7,2-53.1c13.9-16,32.5-23.7,52.3-29c1-0.3,2.4,0.6,3.5,1c-0.7,1-1.5,2-2.4,2.9
		c-11.1,9.3-22.8,18.1-33.3,28.1c-14.9,14.3-13.6,27.6,3.1,39.8c24.7,18,53.4,25.8,82.6,32c37.5,8,75.8,8,113.9,8.4
		c40.9,0.5,81.8,0.6,122.6-1.4c42.8-2.1,84.5-10.8,123.4-29.8c7.3-3.6,13.9-8.4,19.7-14.1c10.3-10,10.7-21,0.6-31.1
		c-11-11-23.2-20.7-35-30.9C461.5,337.2,460,336.4,456.6,334z"/>
	<path d="M366.5,389.1c-19.6,0.1-39.3-13-47.2-34.4c-8.8-23.9-9.3-48.2,0.1-72c8.5-21.5,24.7-34.4,48.1-35.3
		c22.6-0.8,38.1,11.1,47.8,31.2c14.6,30,13.1,59.3-4,87.7C402.1,381.8,387.4,388.6,366.5,389.1z M344.3,318.1l1,0.3
		c0.4,4.1,0.6,8.3,1.3,12.4c0.7,4.1,1.6,8.1,2.8,12.1c3.2,11.1,10,17.1,18.9,16.9c10.2-0.2,16.5-6.5,19.8-17.9
		c4.9-17.1,3.9-33.7-1.4-50.4c-3-9.3-8.9-14.6-17.6-15c-7.9-0.4-15.4,4.7-18.1,13.6C348.1,299.2,346.5,308.7,344.3,318.1z"/>
	<path d="M256.5,293.7c13.4,1.1,25,4,34.3,12.9c13.6,13.1,18.6,34.5,11.9,52.3c-6.4,17.1-24.3,29.6-44.5,29.5
		c-9.2,0-18.9-1.3-27.4-4.5c-27.1-10.1-38.1-36.8-26.2-65.9c5.1-12.6,13.9-23.8,21.9-35c7.1-10,15.3-19.3,23.1-28.8
		c1.1-1.3,2.9-2.9,4.4-2.9c12.3-0.2,24.5-0.1,38.2-0.1L256.5,293.7z M253.4,361c11.5-0.1,18.9-7.5,18.9-18.8s-8.6-20.2-19.4-20
		s-18.9,9.1-18.7,20.2C234.3,353.8,241.9,361.1,253.4,361z"/>
	<path d="M100.7,234.2c9.3-9.6,18.1-18.9,27.1-27.9c0.9-0.9,2.9-0.9,4.3-0.9c87.4,0,174.8,0,262.2,0c1.7,0,4.1,0.5,5,1.7
		c6.8,8.7,13.3,17.7,20.3,27.1L100.7,234.2z"/>
	<path d="M121.6,290.1c-7.1-3.4-14.3-6.8-21.3-10.5c-0.9-0.5-1.7-3.2-1.2-4.3c2.1-4.7,3.9-9.9,7.3-13.5
		c16.5-17.8,49.5-19.3,67.9-3.5c15,12.8,17.7,33.4,6.4,50.1c-2,3-2.1,4.7,0.2,7.5c11.3,13.4,16.3,28.3,8.3,45.1
		c-8.3,17.5-23.1,26.1-41.8,27.3c-21.3,1.5-39.8-4.9-51.7-24.2c-5.7-9.2-5.3-9.7,4.1-14.4l18.8-9.4c2.4,4,4.5,8,7.1,11.6
		c6.1,8.6,17.1,10.8,26.3,5.6c7.7-4.4,10.2-12.5,6.7-21.6c-2.9-7.5-9-10.4-16.3-10.8c-5.5-0.3-7.4-2.5-6.5-7.6
		c0.2-0.9,0.2-1.7,0-2.6c-1.4-6.8,1.1-10.3,8.2-11.6c6.2-1.1,11.5-4.3,12.8-11.3c1.2-6.4,0.4-12.2-6.2-15.6
		c-7.4-3.9-16.9-2.3-22.4,3.9C125.9,283.3,124,286.7,121.6,290.1z"/>
	<path d="M443.3,260.7c-12.8,0.2-23.3-10.1-23.5-22.9c0-0.1,0-0.3,0-0.4c-0.1-12.1,11.5-23.6,23.8-23.5s22.9,11,23,23.6
		C466.8,250.7,456.7,260.7,443.3,260.7z M452.7,235.5c-0.3-5.1-5.4-8.3-9.9-7.5c-3.7,0.6-8.9,5.7-9.3,9.3c-0.3,2.9,5,7.8,8.8,9.3
		C446.8,248.3,452.7,241.8,452.7,235.5z"/>
</g>
<g class="st0">
	<path class="st1" d="M-602.7,193.7v-67.4h12c-17.2-31.9-40.7-56.7-70.6-77.2c48.5-21.7,99.9-36.3,152.6-43.3
		c110.7-14.6,218-2.4,322,43.2c-29.6,20.5-53.5,44.8-69.9,75.7c0.5,0.6,0.7,1.1,0.9,1.1c10.4,1.1,10.5,1.1,10.5,11.8
		c0.1,17.2,0,34.3,0.1,51.5c0,3.4-0.8,4.9-4.6,4.9c-116.7-0.1-233.4-0.1-350.2-0.1C-600.7,193.9-601.5,193.8-602.7,193.7z
		 M-526,75.9l-72,17.9c6.4,11.1,12,20.9,17.8,30.5c0.6,0.9,1.5,1.6,2.6,1.8c17.1,0.1,34.2,0.1,51.6,0.1V75.9z M-250,93.7l-72.4-17.8
		c0,17-0.1,32.4,0.2,47.7c0,0.9,2.6,2.4,4,2.4c15.4,0.2,30.8,0.2,46.2,0c1.7-0.1,3.4-0.9,4.5-2.3C-261.9,114.2-256.4,104.6-250,93.7
		L-250,93.7z M-429.4,67.3c-11.8,0.5-23,0.9-34.2,1.7c-1.4,0.1-3.8,3-3.8,4.6c-0.3,16.1-0.2,32.2-0.1,48.3c0,1.4,1.5,4,2.3,4
		c11.9,0.3,23.8,0.2,35.7,0.2L-429.4,67.3z M-380.8,126c0-18.2,0-36-0.1-53.8c-0.3-1.4-1.3-2.5-2.6-3c-11.6-0.9-23.3-1.5-35.1-2.2
		v59L-380.8,126z M-370.7,70c0,18.5-0.1,35.8,0.2,53c0,1,2.5,2.9,3.9,2.9c9.9,0.3,19.7,0,29.6,0.2c3.9,0.1,4.6-1.4,4.5-4.8
		c-0.2-12.6-0.5-25.3,0.1-37.9c0.4-7.1-1.8-9.7-8.8-10.2C-350.9,72.7-360.5,71.2-370.7,70L-370.7,70z M-477.6,98.3
		c0-8,0.2-16-0.2-23.9c-0.1-1.3-2.8-3.8-4.1-3.7c-10.1,0.9-20.2,2.2-30.3,3.7c-1.3,0.2-3.2,2.5-3.2,3.9c-0.2,14.7-0.2,29.5,0,44.2
		c0,1.3,2.4,3.6,3.8,3.6c9.9,0.3,19.8,0.3,29.6-0.1c1.5-0.1,4.2-2.7,4.2-4.3C-477.3,113.9-477.6,106.1-477.6,98.3z M-570.4,146.2
		c2.1,12.1,4.1,24,6.3,35.8c0.4,1,1.3,1.8,2.5,2c11.7,0.1,23.5,0.1,35.4,0.1v-37.9L-570.4,146.2z M-277.8,146.4h-44.4
		c0,11.7-0.1,23.1,0.1,34.5c0,1,1.8,2.9,2.8,3c10.6,0.2,21.1,0.2,31.7,0c1.5-0.3,2.7-1.3,3.3-2.8
		C-281.9,169.7-279.9,158.1-277.8,146.4L-277.8,146.4z M-370.7,146.1c0,11.9-0.1,23.3,0.1,34.7c0,1.2,2.1,3.3,3.2,3.3
		c10.5,0.2,21.1,0.1,31.6-0.2c1.1,0,3-1.6,3-2.4c0.2-11.7,0.1-23.4,0.1-35.3H-370.7z M-429.4,146.1c-12,0-23.4-0.1-34.9,0.2
		c-1.1,0-3.1,2.4-3.1,3.8c-0.3,10-0.3,20.1,0,30.1c0,1.3,1.7,3.7,2.7,3.7c11.7,0.3,23.4,0.2,35.3,0.2L-429.4,146.1z M-515.4,184
		c11.9,0,23.5,0.1,35.1-0.1c0.9,0,2.6-2.1,2.6-3.3c0.2-10.4,0.2-20.8,0-31.2c0-1.1-1.3-3.2-2.1-3.2c-11.9-0.2-23.7-0.1-35.7-0.1
		L-515.4,184z M-418.9,183.6h37.5v-37.6c-11.8,0-23.4-0.1-34.9,0.1c-0.9,0-2.5,1.8-2.5,2.8C-419,160.4-418.9,171.8-418.9,183.6
		L-418.9,183.6z"/>
	<path class="st1" d="M-230.4,334c3.6-0.3,4.9-0.7,6-0.4c19.4,5.1,37.4,12.8,51.3,27.8c13.7,14.7,15.7,35,4.9,52.3
		c-10.4,16.7-25.7,27.9-42.6,37.1c-35.6,19.3-74.1,29.5-113.8,36.3c-79,13.8-160,11-237.8-8.1c-29.7-7.3-58.6-17.4-84.1-34.7
		c-11.7-8-22.1-17.7-31.1-28.6c-13.8-16.7-12.2-36.7,2-53.1c13.9-16,32.5-23.7,52.3-29c1-0.3,2.4,0.6,3.5,1c-0.7,1-1.5,2-2.4,2.9
		c-11.1,9.3-22.8,18.1-33.3,28.1c-14.9,14.3-13.6,27.6,3.1,39.8c24.7,18,53.4,25.8,82.6,32c37.5,8,75.8,8,113.9,8.4
		c40.9,0.5,81.8,0.6,122.6-1.4c42.8-2.1,84.5-10.8,123.4-29.8c7.3-3.6,13.9-8.4,19.7-14.1c10.3-10,10.7-21,0.6-31.1
		c-11-11-23.2-20.7-35-30.9C-225.6,337.2-227.1,336.4-230.4,334z"/>
	<path class="st1" d="M-320.6,389.1c-19.6,0.1-39.3-13-47.2-34.4c-8.8-23.9-9.3-48.2,0.1-72c8.5-21.5,24.7-34.4,48.1-35.3
		c22.6-0.8,38.1,11.1,47.8,31.2c14.6,30,13.1,59.3-4,87.7C-285,381.8-299.7,388.6-320.6,389.1z M-342.8,318.1l1,0.3
		c0.4,4.1,0.6,8.3,1.3,12.4c0.7,4.1,1.6,8.1,2.8,12.1c3.2,11.1,10,17.1,18.9,16.9c10.2-0.2,16.5-6.5,19.8-17.9
		c4.9-17.1,3.9-33.7-1.4-50.4c-3-9.3-8.9-14.6-17.6-15c-7.9-0.4-15.4,4.7-18.1,13.6C-339,299.2-340.6,308.7-342.8,318.1z"/>
	<path class="st1" d="M-430.6,293.7c13.4,1.1,25,4,34.3,12.9c13.6,13.1,18.6,34.5,11.9,52.3c-6.4,17.1-24.3,29.6-44.5,29.5
		c-9.2,0-18.9-1.3-27.4-4.5c-27.1-10.1-38.1-36.8-26.2-65.9c5.1-12.6,13.9-23.8,21.9-35c7.1-10,15.3-19.3,23.1-28.8
		c1.1-1.3,2.9-2.9,4.4-2.9c12.3-0.2,24.5-0.1,38.2-0.1L-430.6,293.7z M-433.7,361c11.5-0.1,18.9-7.5,18.9-18.8s-8.6-20.2-19.4-20
		c-10.8,0.3-18.9,9.1-18.7,20.2C-452.8,353.8-445.2,361.1-433.7,361z"/>
	<path class="st1" d="M-586.4,234.2c9.3-9.6,18.1-18.9,27.1-27.9c0.9-0.9,2.9-0.9,4.3-0.9c87.4,0,174.8,0,262.2,0
		c1.7,0,4.1,0.5,5,1.7c6.8,8.7,13.3,17.7,20.3,27.1L-586.4,234.2z"/>
	<path class="st1" d="M-565.5,290.1c-7.1-3.4-14.3-6.8-21.3-10.5c-0.9-0.5-1.7-3.2-1.2-4.3c2.1-4.7,3.9-9.9,7.3-13.5
		c16.5-17.8,49.5-19.3,67.9-3.5c15,12.8,17.7,33.4,6.4,50.1c-2,3-2.1,4.7,0.2,7.5c11.3,13.4,16.3,28.3,8.3,45.1
		c-8.3,17.5-23.1,26.1-41.8,27.3c-21.3,1.5-39.8-4.9-51.7-24.2c-5.7-9.2-5.3-9.7,4.1-14.4l18.8-9.4c2.4,4,4.5,8,7.1,11.6
		c6.1,8.6,17.1,10.8,26.3,5.6c7.7-4.4,10.2-12.5,6.7-21.6c-2.9-7.5-9-10.4-16.3-10.8c-5.5-0.3-7.4-2.5-6.5-7.6
		c0.2-0.9,0.2-1.7,0-2.6c-1.4-6.8,1.1-10.3,8.2-11.6c6.2-1.1,11.5-4.3,12.8-11.3c1.2-6.4,0.4-12.2-6.2-15.6
		c-7.5-3.9-16.9-2.3-22.4,3.9C-561.2,283.3-563.1,286.7-565.5,290.1z"/>
	<path class="st1" d="M-243.8,260.7c-12.8,0.2-23.3-10.1-23.5-22.9c0-0.1,0-0.3,0-0.4c-0.1-12.1,11.5-23.6,23.8-23.5
		s22.9,11,23,23.6C-220.3,250.7-230.4,260.7-243.8,260.7z M-234.4,235.5c-0.3-5.1-5.4-8.3-9.9-7.5c-3.7,0.6-8.9,5.7-9.3,9.3
		c-0.3,2.9,5,7.8,8.8,9.3C-240.3,248.3-234.4,241.8-234.4,235.5z"/>
</g>
</svg>
